URL: https://cactusbloguuodvqjmnzlwetjlpj6aggc6iocwhuupb47laukux7ckid.onion/posts/SIMSONMAXWELL

<!DOCTYPE html><html lang="en"><head><meta charSet="utf-8"/><meta name="viewport" content="width=device-width"/><meta name="next-head-count" content="2"/><link rel="preload" href="/_next/static/media/5f6db94324fceaa3-s.p.woff2" as="font" type="font/woff2" crossorigin="anonymous" data-next-font="size-adjust"/><link rel="preload" href="/_next/static/media/283a5535aa41911a-s.p.woff2" as="font" type="font/woff2" crossorigin="anonymous" data-next-font="size-adjust"/><link rel="preload" href="/_next/static/css/bca16c3dcd2c04d4.css" as="style"/><link rel="stylesheet" href="/_next/static/css/bca16c3dcd2c04d4.css" data-n-g=""/><noscript data-n-css=""></noscript><script defer="" nomodule="" src="/_next/static/chunks/polyfills-c67a75d1b6f99dc8.js"></script><script src="/_next/static/chunks/webpack-8fa1640cc84ba8fe.js" defer=""></script><script src="/_next/static/chunks/framework-2c79e2a64abdb08b.js" defer=""></script><script src="/_next/static/chunks/main-17a9a24315ee9390.js" defer=""></script><script src="/_next/static/chunks/pages/_app-f2c555c016c57270.js" defer=""></script><script src="/_next/static/chunks/744-4116545d15cf551f.js" defer=""></script><script src="/_next/static/chunks/486-9b1bd6e60a973644.js" defer=""></script><script src="/_next/static/chunks/pages/posts/%5Bslug%5D-c3014ba60302bfcc.js" defer=""></script><script src="/_next/static/FD7MmWQlZ1c-pCvBZWyAc/_buildManifest.js" defer=""></script><script src="/_next/static/FD7MmWQlZ1c-pCvBZWyAc/_ssgManifest.js" defer=""></script></head><body><div id="__next"><div class="__variable_d17c15 font-sans"><header class="bg-[#222E34] py-3"><div class="container"><div class="grid gap-2 md:grid-flow-col md:justify-between"><nav class="grid grid-cols-3 gap-1 md:grid-flow-col md:gap-2.5"><a href="/" class="inline-flex justify-center items-center px-5 py-1.5 text-[14px] rounded-[4px] border border-[#0C1317] text-[#999999]">Home</a><a href="/contact" class="inline-flex justify-center items-center px-5 py-1.5 text-[14px] rounded-[4px] border border-[#0C1317] text-[#999999]">Contact</a><a href="/rules" class="inline-flex justify-center items-center px-5 py-1.5 text-[14px] rounded-[4px] border border-[#0C1317] text-[#999999]">Rules</a></nav><div class="md:min-w-[228px] grid grid-cols-[1fr,36px] rounded-[4px] bg-[#0C1317]"><div><input placeholder="Search" aria-describedby="" class="h-[36px] w-full bg-[#0C1317] rounded-[4px] px-4 text-[14px]" id=":Rcm:" value=""/></div><button tabindex="0" type="button" class="h-9 w-9 inline-flex justify-center items-center p-0"><svg class="h-4 w-4" focusable="false" aria-hidden="true" fill="currentColor"><use xlink:href="/sprites/common.svg#search"></use></svg></button></div></div></div></header><div class="my-12"><div class="container"><div class="grid gap-20"><article class="lg:bg-[#222E34] lg:px-10 lg:pb-12 lg:pt-8"><div class="mb-4 text-[15px] leading-none"><span>September 20, 2024</span></div><h1 class="mb-10 text-[34px] font-bold leading-[50px] text-white">simson-maxwell.com\$29.4M\Canada\357GB\100% DISCLOSED</h1><img class="aspect-[13/5] w-full object-cover" src="/uploads/SIMSONMAXWELL_15d724d0a2.png" alt="" width="1000" height="400"/><div class="prose prose-a:text-[#DADADA] prose-img:w-full lg:prose-lg prose-headings:text-[#DADADA] mt-10 max-w-full text-[#DADADA]"><p><mark class="marker-yellow"><strong>10.09.2024 UPDATE! 100% Disclosed 357GB &gt;&gt; Download link #2</strong></mark></p><p>Industrial Machinery &amp; Equipment<br><br>“Simson Maxwell is a respected distributor and major Original Equipment Manufacturer for many of the world's largest engine and power generation manufacturers. Today, Simson Maxwell serves over 6000 customers across Western Canada from five branches and an extensive dealer network.”<br><br>Website: <a href="https://www.simson-maxwell.com/">https://www.simson-maxwell.com/</a><br><br>Revenue : $29.4M<br><br>Address: 467 Exploration Ave SE, Calgary, Alberta, T3S 0B4, Canada<br><br>Phone Number: (403) 252-8131<br><br><mark class="marker-yellow"><strong>Download link #1:</strong></mark> &nbsp;<a href="https://6wuivqgrv2g7brcwhjw5co3vligiqowpumzkcyebku7i2busrvlxnzid.onion/6rNvp6AGvq1X/PROOF/">https://6wuivqgrv2g7brcwhjw5co3vligiqowpumzkcyebku7i2busrvlxnzid.onion/SIMSONMAXWELL/PROOF/</a><br><br><mark class="marker-yellow"><strong>Mirror:</strong></mark> <a href="https://cactus5dqnqkppa5ayckiyk6dttpqwczdqphv5mxh4dkk5ct544q5aad.onion/6rNvp6AGvq1X/PROOF/">https://cactus5dqnqkppa5ayckiyk6dttpqwczdqphv5mxh4dkk5ct544q5aad.onion/SIMSONMAXWELL/PROOF/</a><br>&nbsp;</p><p><mark class="marker-yellow"><strong>Download link #2:</strong></mark> &nbsp;<a href="https://6wuivqgrv2g7brcwhjw5co3vligiqowpumzkcyebku7i2busrvlxnzid.onion/SIMSONMAXWELL/full/">https://6wuivqgrv2g7brcwhjw5co3vligiqowpumzkcyebku7i2busrvlxnzid.onion/SIMSONMAXWELL/full/</a></p><p><mark class="marker-yellow"><strong>Mirror:</strong></mark> &nbsp;<a href="https://cactus5dqnqkppa5ayckiyk6dttpqwczdqphv5mxh4dkk5ct544q5aad.onion/SIMSONMAXWELL/full/">https://cactus5dqnqkppa5ayckiyk6dttpqwczdqphv5mxh4dkk5ct544q5aad.onion/SIMSONMAXWELL/full/</a><br><br><mark class="marker-yellow"><strong>DATA DESCRIPTIONS:</strong></mark> Personal Identifiable Information, Employees personal and corporate data, customer information, contracts, projects, drawings, financial documents, corporate and personal correspondence, etc.</p><p><img src="/uploads/Attachment_A_6_Passport_Copy_Ezio_Lukas_Ilao_Mendoza_P4891562_C_a44a307f3a.png" alt="Attachment A.6 Passport Copy_Ezio Lukas Ilao Mendoza P4891562C.png"><img src="/uploads/Jackie_Passport20190904_333cbcaf13.png" alt="Jackie_Passport20190904.png"><img src="/uploads/1036_1_B_G_BUILDING_ELEVATION_c2f94d1b7a.png" alt="1036.1- B(G) BUILDING ELEVATION.png"><img src="/uploads/Nathan_Merry_BC_Driver_License_Exp_9_May_2028_85dc867fe1.png" alt="Nathan Merry - BC Driver License Exp. 9-May-2028.png"><img src="/uploads/Rupert_Lewis_Driver_s_Licence_Exp_18_April_2028_8f2f306239.png" alt="Rupert Lewis - Driver's Licence Exp. 18-April- 2028.png"></p></div></article><aside class="grid gap-12"><h2 class="text-center text-[34px] font-normal leading-[50px] text-white">You may also like these articles</h2><div class="grid content-start items-start gap-12 md:grid-cols-2 lg:grid-cols-3"><article class="grid bg-[#222E34] relative"><div class="aspect-[17/11] relative"><img class="absolute w-full h-full inset-0 object-cover" src="/uploads/TLG_d3d1b0b206.png" alt="" width="1000" height="400"/></div><div class="space-y-[15px] px-5 py-4"><div class="text-[12px] leading-tight"><span>September 20, 2024</span></div><a class="before:absolute before:inset-0" href="/posts/TLG"><h2 class="text-[16px] font-bold leading-6 text-white">thomas-lloyd.com\$66.1M\USA\2.4TB\&lt;1% DISCLOSED</h2></a><div class="grid grid-flow-col justify-between"><span class="text-primary flex items-center justify-start gap-2 text-[14px] leading-5">Read more <svg class="h-2.5 w-2.5" focusable="false" aria-hidden="true" fill="currentColor"><use xlink:href="/sprites/common.svg#chevron-right"></use></svg></span><div class="flex items-center justify-start gap-1"><svg class="h-6 w-6" focusable="false" aria-hidden="true" fill="currentColor"><use xlink:href="/sprites/common.svg#eye"></use></svg><span class="text-[12px] leading-4 text-[#999999]">3024</span></div></div></div></article><article class="grid bg-[#222E34] relative"><div class="aspect-[17/11] relative"><img class="absolute w-full h-full inset-0 object-cover" src="/uploads/PEERLESS_197c775705.png" alt="" width="1000" height="400"/></div><div class="space-y-[15px] px-5 py-4"><div class="text-[12px] leading-tight"><span>September 20, 2024</span></div><a class="before:absolute before:inset-0" href="/posts/PEERLESS"><h2 class="text-[16px] font-bold leading-6 text-white">peerlessumbrella.com\$23.2M\USA\131GB\100% DISCLOSED</h2></a><p class="text-[14px] leading-5 text-[#DADADA]">UPDATE! 100% Disclosed 131GB &gt;&gt; Download link #1</p><div class="grid grid-flow-col justify-between"><span class="text-primary flex items-center justify-start gap-2 text-[14px] leading-5">Read more <svg class="h-2.5 w-2.5" focusable="false" aria-hidden="true" fill="currentColor"><use xlink:href="/sprites/common.svg#chevron-right"></use></svg></span><div class="flex items-center justify-start gap-1"><svg class="h-6 w-6" focusable="false" aria-hidden="true" fill="currentColor"><use xlink:href="/sprites/common.svg#eye"></use></svg><span class="text-[12px] leading-4 text-[#999999]">2753</span></div></div></div></article><article class="grid bg-[#222E34] relative"><div class="aspect-[17/11] relative"><img class="absolute w-full h-full inset-0 object-cover" src="/uploads/NATCO_9dfb0c056e.png" alt="" width="1000" height="400"/></div><div class="space-y-[15px] px-5 py-4"><div class="text-[12px] leading-tight"><span>September 20, 2024</span></div><a class="before:absolute before:inset-0" href="/posts/NATCO"><h2 class="text-[16px] font-bold leading-6 text-white">natcoglobal.com\$38.5M\USA\111GB\100% DISCLOSED</h2></a><p class="text-[14px] leading-5 text-[#DADADA]">UPDATE! 100% Disclosed 111GB &gt;&gt; Download link #1</p><div class="grid grid-flow-col justify-between"><span class="text-primary flex items-center justify-start gap-2 text-[14px] leading-5">Read more <svg class="h-2.5 w-2.5" focusable="false" aria-hidden="true" fill="currentColor"><use xlink:href="/sprites/common.svg#chevron-right"></use></svg></span><div class="flex items-center justify-start gap-1"><svg class="h-6 w-6" focusable="false" aria-hidden="true" fill="currentColor"><use xlink:href="/sprites/common.svg#eye"></use></svg><span class="text-[12px] leading-4 text-[#999999]">2730</span></div></div></div></article></div><div><nav class="grid grid-flow-col justify-center gap-6 text-[16px] leading-[16px]"><button class="text-primary inline-flex justify-start items-center gap-2 hidden" disabled=""><svg class="h-2.5 w-2.5 rotate-180" focusable="false" aria-hidden="true" fill="currentColor"><use xlink:href="/sprites/common.svg#chevron-right"></use></svg>Previous page</button><div class="grid grid-flow-col items-center justify-center gap-2.5"><a class="inline-flex justify-center items-center border rounded-[4px] h-8 w-8 border-primary text-[#DADADA]" href="/posts/SIMSONMAXWELL?page=1">1</a><a class="inline-flex justify-center items-center border rounded-[4px] h-8 w-8 border-transparent" href="/posts/SIMSONMAXWELL?page=2">2</a><a class="inline-flex justify-center items-center border rounded-[4px] h-8 w-8 border-transparent" href="/posts/SIMSONMAXWELL?page=3">3</a><a class="inline-flex justify-center items-center border rounded-[4px] h-8 w-8 border-transparent" href="/posts/SIMSONMAXWELL?page=4">4</a><a class="inline-flex justify-center items-center border rounded-[4px] h-8 w-8 border-transparent" href="/posts/SIMSONMAXWELL?page=5">5</a></div><button class="text-primary inline-flex justify-start items-center gap-2">Next page <svg class="h-2.5 w-2.5" focusable="false" aria-hidden="true" fill="currentColor"><use xlink:href="/sprites/common.svg#chevron-right"></use></svg></button></nav></div></aside></div></div></div></div></div><script id="__NEXT_DATA__" type="application/json">{"props":{"pageProps":{"navigation":[{"id":2,"title":"Home","menuAttached":true,"order":1,"path":"/","type":"INTERNAL","uiRouterKey":"home","slug":{},"external":false,"related":{"id":1,"title":"Home","createdAt":"2023-06-17T19:27:13.416Z","updatedAt":"2023-06-17T19:27:20.817Z","__contentType":"api::home-page.home-page","navigationItemId":2,"createdBy":{},"updatedBy":{},"__templateName":"Generic"},"items":[]},{"id":3,"title":"Contact","menuAttached":true,"order":2,"path":"/contact","type":"WRAPPER","uiRouterKey":"contact","slug":"contact-1","external":false,"items":[]},{"id":6,"title":"Rules","menuAttached":true,"order":3,"path":"/rules","type":"WRAPPER","uiRouterKey":"rules","slug":"rules-1","external":false,"items":[]}],"post":{"id":162,"attributes":{"title":"simson-maxwell.com\\$29.4M\\Canada\\357GB\\100% DISCLOSED","slug":"SIMSONMAXWELL","excerpt":"UPDATE! 100% Disclosed 357GB \u003e\u003e Download link #2","url":null,"views":"9021","content":"\u003cp\u003e\u003cmark class=\"marker-yellow\"\u003e\u003cstrong\u003e10.09.2024 UPDATE! 100% Disclosed 357GB \u0026gt;\u0026gt; Download link #2\u003c/strong\u003e\u003c/mark\u003e\u003c/p\u003e\u003cp\u003eIndustrial Machinery \u0026amp; Equipment\u003cbr\u003e\u003cbr\u003e“Simson Maxwell is a respected distributor and major Original Equipment Manufacturer for many of the world's largest engine and power generation manufacturers. Today, Simson Maxwell serves over 6000 customers across Western Canada from five branches and an extensive dealer network.”\u003cbr\u003e\u003cbr\u003eWebsite: \u003ca href=\"https://www.simson-maxwell.com/\"\u003ehttps://www.simson-maxwell.com/\u003c/a\u003e\u003cbr\u003e\u003cbr\u003eRevenue : $29.4M\u003cbr\u003e\u003cbr\u003eAddress: 467 Exploration Ave SE, Calgary, Alberta, T3S 0B4, Canada\u003cbr\u003e\u003cbr\u003ePhone Number: (403) 252-8131\u003cbr\u003e\u003cbr\u003e\u003cmark class=\"marker-yellow\"\u003e\u003cstrong\u003eDownload link #1:\u003c/strong\u003e\u003c/mark\u003e \u0026nbsp;\u003ca href=\"https://6wuivqgrv2g7brcwhjw5co3vligiqowpumzkcyebku7i2busrvlxnzid.onion/6rNvp6AGvq1X/PROOF/\"\u003ehttps://6wuivqgrv2g7brcwhjw5co3vligiqowpumzkcyebku7i2busrvlxnzid.onion/SIMSONMAXWELL/PROOF/\u003c/a\u003e\u003cbr\u003e\u003cbr\u003e\u003cmark class=\"marker-yellow\"\u003e\u003cstrong\u003eMirror:\u003c/strong\u003e\u003c/mark\u003e \u003ca href=\"https://cactus5dqnqkppa5ayckiyk6dttpqwczdqphv5mxh4dkk5ct544q5aad.onion/6rNvp6AGvq1X/PROOF/\"\u003ehttps://cactus5dqnqkppa5ayckiyk6dttpqwczdqphv5mxh4dkk5ct544q5aad.onion/SIMSONMAXWELL/PROOF/\u003c/a\u003e\u003cbr\u003e\u0026nbsp;\u003c/p\u003e\u003cp\u003e\u003cmark class=\"marker-yellow\"\u003e\u003cstrong\u003eDownload link #2:\u003c/strong\u003e\u003c/mark\u003e \u0026nbsp;\u003ca href=\"https://6wuivqgrv2g7brcwhjw5co3vligiqowpumzkcyebku7i2busrvlxnzid.onion/SIMSONMAXWELL/full/\"\u003ehttps://6wuivqgrv2g7brcwhjw5co3vligiqowpumzkcyebku7i2busrvlxnzid.onion/SIMSONMAXWELL/full/\u003c/a\u003e\u003c/p\u003e\u003cp\u003e\u003cmark class=\"marker-yellow\"\u003e\u003cstrong\u003eMirror:\u003c/strong\u003e\u003c/mark\u003e \u0026nbsp;\u003ca href=\"https://cactus5dqnqkppa5ayckiyk6dttpqwczdqphv5mxh4dkk5ct544q5aad.onion/SIMSONMAXWELL/full/\"\u003ehttps://cactus5dqnqkppa5ayckiyk6dttpqwczdqphv5mxh4dkk5ct544q5aad.onion/SIMSONMAXWELL/full/\u003c/a\u003e\u003cbr\u003e\u003cbr\u003e\u003cmark class=\"marker-yellow\"\u003e\u003cstrong\u003eDATA DESCRIPTIONS:\u003c/strong\u003e\u003c/mark\u003e Personal Identifiable Information, Employees personal and corporate data, customer information, contracts, projects, drawings, financial documents, corporate and personal correspondence, etc.\u003c/p\u003e\u003cp\u003e\u003cimg src=\"/uploads/Attachment_A_6_Passport_Copy_Ezio_Lukas_Ilao_Mendoza_P4891562_C_a44a307f3a.png\" alt=\"Attachment A.6 Passport Copy_Ezio Lukas Ilao Mendoza P4891562C.png\"\u003e\u003cimg src=\"/uploads/Jackie_Passport20190904_333cbcaf13.png\" alt=\"Jackie_Passport20190904.png\"\u003e\u003cimg src=\"/uploads/1036_1_B_G_BUILDING_ELEVATION_c2f94d1b7a.png\" alt=\"1036.1- B(G) BUILDING ELEVATION.png\"\u003e\u003cimg src=\"/uploads/Nathan_Merry_BC_Driver_License_Exp_9_May_2028_85dc867fe1.png\" alt=\"Nathan Merry - BC Driver License Exp. 9-May-2028.png\"\u003e\u003cimg src=\"/uploads/Rupert_Lewis_Driver_s_Licence_Exp_18_April_2028_8f2f306239.png\" alt=\"Rupert Lewis - Driver's Licence Exp. 18-April- 2028.png\"\u003e\u003c/p\u003e","createdAt":"2024-09-03T18:35:02.538Z","updatedAt":"2024-09-20T16:11:04.383Z","publishedAt":"2024-09-03T18:35:06.179Z","image":{"data":{"id":1077,"attributes":{"name":"SIMSONMAXWELL.png","alternativeText":null,"caption":null,"width":1000,"height":400,"formats":{"small":{"ext":".png","url":"/uploads/small_SIMSONMAXWELL_15d724d0a2.png","hash":"small_SIMSONMAXWELL_15d724d0a2","mime":"image/png","name":"small_SIMSONMAXWELL.png","path":null,"size":30.62,"width":500,"height":200},"medium":{"ext":".png","url":"/uploads/medium_SIMSONMAXWELL_15d724d0a2.png","hash":"medium_SIMSONMAXWELL_15d724d0a2","mime":"image/png","name":"medium_SIMSONMAXWELL.png","path":null,"size":59.16,"width":750,"height":300},"thumbnail":{"ext":".png","url":"/uploads/thumbnail_SIMSONMAXWELL_15d724d0a2.png","hash":"thumbnail_SIMSONMAXWELL_15d724d0a2","mime":"image/png","name":"thumbnail_SIMSONMAXWELL.png","path":null,"size":11.47,"width":245,"height":98}},"hash":"SIMSONMAXWELL_15d724d0a2","ext":".png","mime":"image/png","size":22.01,"url":"/uploads/SIMSONMAXWELL_15d724d0a2.png","previewUrl":null,"provider":"local","provider_metadata":null,"createdAt":"2024-09-03T18:34:52.091Z","updatedAt":"2024-09-03T18:34:52.091Z"}}}}},"posts":{"data":[{"id":171,"attributes":{"title":"thomas-lloyd.com\\$66.1M\\USA\\2.4TB\\\u003c1% DISCLOSED","slug":"TLG","excerpt":null,"url":null,"views":"3024","content":"\u003cp\u003eFinance\u003cbr\u003e\u003cbr\u003e“ThomasLloyd is a global investment and advisory firm dedicated to leading the necessary process for social and environmental change, focusing exclusively on the financing, construction and operation of sustainable projects in the infrastructure, agriculture and property sectors.”\u003cbr\u003e\u003cbr\u003eWebsite: \u003ca href=\"https://www.thomas-lloyd.com/\"\u003ehttps://www.thomas-lloyd.com/\u003c/a\u003e\u003cbr\u003e\u003cbr\u003eRevenue : $66.1M\u003cbr\u003e\u003cbr\u003eAddress: 427 Bedford Rd, Pleasantville, New York, 10570, United States\u003cbr\u003e\u003cbr\u003ePhone Number: (914) 495-3630\u003cbr\u003e\u003cbr\u003e\u003cmark class=\"marker-yellow\"\u003e\u003cstrong\u003eDownload link #1:\u003c/strong\u003e\u003c/mark\u003e \u0026nbsp;\u003ca href=\"https://6wuivqgrv2g7brcwhjw5co3vligiqowpumzkcyebku7i2busrvlxnzid.onion/TLG/PROOF/\"\u003ehttps://6wuivqgrv2g7brcwhjw5co3vligiqowpumzkcyebku7i2busrvlxnzid.onion/TLG/PROOF/\u003c/a\u003e\u003cbr\u003e\u003cbr\u003e\u003cmark class=\"marker-yellow\"\u003e\u003cstrong\u003eMirror:\u003c/strong\u003e\u003c/mark\u003e \u003ca href=\"https://cactus5dqnqkppa5ayckiyk6dttpqwczdqphv5mxh4dkk5ct544q5aad.onion/TLG/PROOF/\"\u003ehttps://cactus5dqnqkppa5ayckiyk6dttpqwczdqphv5mxh4dkk5ct544q5aad.onion/TLG/PROOF/\u003c/a\u003e\u003cbr\u003e\u003cbr\u003e\u003cmark class=\"marker-yellow\"\u003e\u003cstrong\u003eDATA DESCRIPTIONS:\u003c/strong\u003e\u003c/mark\u003e Personal Identifiable Information, employees\\executives personal data, corporate confidential documents, customer information, financial documents, corporate correspondence, database backups, etc.\u003c/p\u003e\u003cp\u003e\u003cbr\u003e\u003cimg src=\"/uploads/ABN_Amro_Project_Platypus_Strictly_Confidential_b7db08d282.png\" alt=\"ABN Amro Project Platypus_Strictly Confidential.png\"\u003e\u003cimg src=\"/uploads/M_Plater_Certified_ID_b5b30c0a5a.png\" alt=\"M Plater - Certified ID.png\"\u003e\u003cimg src=\"/uploads/V_Maclachlan_Certified_ID_567ac4eebd.png\" alt=\"V Maclachlan - Certified ID.png\"\u003e\u003cimg src=\"/uploads/Andreas_Schmitzer_passpot_21abecd4bb.png\" alt=\"Andreas Schmitzer passpot.png\"\u003e\u003cimg src=\"/uploads/Passport_Rouxle_Rytz_4bd03159dd.png\" alt=\"Passport_Rouxle Rytz.png\"\u003e\u003c/p\u003e","createdAt":"2024-09-17T09:07:14.061Z","updatedAt":"2024-09-20T16:12:04.319Z","publishedAt":"2024-09-17T09:07:37.310Z","image":{"data":{"id":1120,"attributes":{"name":"TLG.png","alternativeText":null,"caption":null,"width":1000,"height":400,"formats":{"small":{"ext":".png","url":"/uploads/small_TLG_d3d1b0b206.png","hash":"small_TLG_d3d1b0b206","mime":"image/png","name":"small_TLG.png","path":null,"size":11.12,"width":500,"height":200},"medium":{"ext":".png","url":"/uploads/medium_TLG_d3d1b0b206.png","hash":"medium_TLG_d3d1b0b206","mime":"image/png","name":"medium_TLG.png","path":null,"size":20.07,"width":750,"height":300},"thumbnail":{"ext":".png","url":"/uploads/thumbnail_TLG_d3d1b0b206.png","hash":"thumbnail_TLG_d3d1b0b206","mime":"image/png","name":"thumbnail_TLG.png","path":null,"size":4.37,"width":245,"height":98}},"hash":"TLG_d3d1b0b206","ext":".png","mime":"image/png","size":4.49,"url":"/uploads/TLG_d3d1b0b206.png","previewUrl":null,"provider":"local","provider_metadata":null,"createdAt":"2024-09-17T09:06:12.137Z","updatedAt":"2024-09-17T09:06:12.137Z"}}}}},{"id":170,"attributes":{"title":"peerlessumbrella.com\\$23.2M\\USA\\131GB\\100% DISCLOSED","slug":"PEERLESS","excerpt":"UPDATE! 100% Disclosed 131GB \u003e\u003e Download link #1","url":null,"views":"2753","content":"\u003cp\u003eManufacturing\u003cbr\u003e\u003cbr\u003e“Peerless Umbrella is a full service manufacturer of quality umbrellas. Operating with a Union Shop, this family owned business has been a manufacturer of traditional, as well as golf and fashion umbrellas for more than 70 years. Today Peerless is a leader in umbrella technology and manufacturing, as well as one of the largest importers in the country.”\u003cbr\u003e\u003cbr\u003eWebsite: \u003ca href=\"https://www.peerlessumbrella.com/\"\u003ehttps://www.peerlessumbrella.com/\u003c/a\u003e\u003cbr\u003e\u003cbr\u003eRevenue : $23.2M\u003cbr\u003e\u003cbr\u003eAddress: 427 Ferry St At, Newark, New Jersey, 07105, United States\u003cbr\u003e\u003cbr\u003ePhone Number: (973) 578-4900\u003cbr\u003e\u003cbr\u003e\u003cmark class=\"marker-yellow\"\u003e\u003cstrong\u003eDownload link #1:\u003c/strong\u003e\u003c/mark\u003e \u0026nbsp;\u003ca href=\"https://6wuivqgrv2g7brcwhjw5co3vligiqowpumzkcyebku7i2busrvlxnzid.onion/PEERLESS/full/\"\u003ehttps://6wuivqgrv2g7brcwhjw5co3vligiqowpumzkcyebku7i2busrvlxnzid.onion/PEERLESS/full/\u003c/a\u003e\u003cbr\u003e\u003cbr\u003e\u003cmark class=\"marker-yellow\"\u003e\u003cstrong\u003eMirror:\u003c/strong\u003e\u003c/mark\u003e \u0026nbsp;\u003ca href=\"https://cactus5dqnqkppa5ayckiyk6dttpqwczdqphv5mxh4dkk5ct544q5aad.onion/PEERLESS/full/\"\u003ehttps://cactus5dqnqkppa5ayckiyk6dttpqwczdqphv5mxh4dkk5ct544q5aad.onion/PEERLESS/full/\u003c/a\u003e\u003cbr\u003e\u003cbr\u003e\u003cmark class=\"marker-yellow\"\u003e\u003cstrong\u003eDATA DESCRIPTIONS:\u003c/strong\u003e\u003c/mark\u003e Personal Identifiable Information, database backups, employees\\executives personal and corporate data, customer data, contracts\\projects\\drawings, financial documents, corporate correspondence, etc.\u003c/p\u003e\u003cp\u003e\u003cimg src=\"/uploads/Drivers_License_0673bc3936.png\" alt=\"Drivers License.png\"\u003e\u003cimg src=\"/uploads/Jan_2024_IS_4595c0f7a5.png\" alt=\"Jan 2024 IS.png\"\u003e\u003cimg src=\"/uploads/AIA_2024_f4c2e233b0.png\" alt=\"AIA 2024.png\"\u003e\u003cimg src=\"/uploads/Jan_2024_BS_5b9c99a6cf.png\" alt=\"Jan 2024 BS.png\"\u003e\u003cimg src=\"/uploads/2023_Union_Agreement_684706667e.png\" alt=\"2023 Union Agreement.png\"\u003e\u003c/p\u003e","createdAt":"2024-09-09T18:32:32.735Z","updatedAt":"2024-09-20T16:12:07.252Z","publishedAt":"2024-09-17T09:11:48.147Z","image":{"data":{"id":1114,"attributes":{"name":"PEERLESS.png","alternativeText":null,"caption":null,"width":1000,"height":400,"formats":{"small":{"ext":".png","url":"/uploads/small_PEERLESS_197c775705.png","hash":"small_PEERLESS_197c775705","mime":"image/png","name":"small_PEERLESS.png","path":null,"size":27.26,"width":500,"height":200},"medium":{"ext":".png","url":"/uploads/medium_PEERLESS_197c775705.png","hash":"medium_PEERLESS_197c775705","mime":"image/png","name":"medium_PEERLESS.png","path":null,"size":55.1,"width":750,"height":300},"thumbnail":{"ext":".png","url":"/uploads/thumbnail_PEERLESS_197c775705.png","hash":"thumbnail_PEERLESS_197c775705","mime":"image/png","name":"thumbnail_PEERLESS.png","path":null,"size":7.84,"width":245,"height":98}},"hash":"PEERLESS_197c775705","ext":".png","mime":"image/png","size":23.48,"url":"/uploads/PEERLESS_197c775705.png","previewUrl":null,"provider":"local","provider_metadata":null,"createdAt":"2024-09-09T18:31:42.094Z","updatedAt":"2024-09-09T18:31:42.094Z"}}}}},{"id":169,"attributes":{"title":"natcoglobal.com\\$38.5M\\USA\\111GB\\100% DISCLOSED","slug":"NATCO","excerpt":"UPDATE! 100% Disclosed 111GB \u003e\u003e Download link #1","url":null,"views":"2730","content":"\u003cp\u003eBusiness Services\u003cbr\u003e\u003cbr\u003e“Founded in 1991, North American Textile Company, LLC (NATco) is a global manufacturer of labels, trims and hardware. NATco corporate headquarters is located in Los Angeles, California and owns and operates plants in several countries throughout the world including Italy, China, India and more.”\u003cbr\u003e\u003cbr\u003eWebsite: \u003ca href=\"https://www.natcoglobal.com/\"\u003ehttps://www.natcoglobal.com/\u003c/a\u003e\u003cbr\u003e\u003cbr\u003eRevenue : $38.5M\u003cbr\u003e\u003cbr\u003eAddress: 346 W Cerritos Ave, Glendale, California, 91204, United States\u003cbr\u003e\u003cbr\u003ePhone Number: (818) 409-0019\u003cbr\u003e\u003cbr\u003e\u003cmark class=\"marker-yellow\"\u003e\u003cstrong\u003eDownload link #1:\u003c/strong\u003e\u003c/mark\u003e \u0026nbsp;\u003ca href=\"https://6wuivqgrv2g7brcwhjw5co3vligiqowpumzkcyebku7i2busrvlxnzid.onion/NATCO/full/\"\u003ehttps://6wuivqgrv2g7brcwhjw5co3vligiqowpumzkcyebku7i2busrvlxnzid.onion/NATCO/full/\u003c/a\u003e\u003cbr\u003e\u003cbr\u003e\u003cmark class=\"marker-yellow\"\u003e\u003cstrong\u003eMirror:\u003c/strong\u003e\u003c/mark\u003e \u0026nbsp;\u003ca href=\"https://cactus5dqnqkppa5ayckiyk6dttpqwczdqphv5mxh4dkk5ct544q5aad.onion/NATCO/full/\"\u003ehttps://cactus5dqnqkppa5ayckiyk6dttpqwczdqphv5mxh4dkk5ct544q5aad.onion/NATCO/full/\u003c/a\u003e\u003cbr\u003e\u003cbr\u003e\u003cmark class=\"marker-yellow\"\u003e\u003cstrong\u003eDATA DESCRIPTIONS:\u003c/strong\u003e\u003c/mark\u003e Employees personal and corporate data, customer information, corporate correspondence, database backups, etc.\u003c/p\u003e\u003cp\u003e\u003cimg src=\"/uploads/GLOBAL_REVENUE_REPORT_2023_bfc22e34c4.png\" alt=\"GLOBAL REVENUE REPORT 2023.png\"\u003e\u003cimg src=\"/uploads/Operating_Agreement_of_Fitz_Roy_Holdings_LLC_87bc354eb4.png\" alt=\"Operating Agreement of Fitz Roy Holdings, LLC.png\"\u003e\u003cimg src=\"/uploads/FASHION_NOVA_VENDOR_AGREEMENT_v35_a5b03cb674.png\" alt=\"FASHION NOVA VENDOR AGREEMENT v35.png\"\u003e\u003cimg src=\"/uploads/Account_Balance_90030_000_00_Litigation_Settlement_20_Payout_GEN_GEN_1_Legal_f3663ee2ad.png\" alt=\"Account Balance - 90030-000-00 Litigation Settlement%20 Payout (GEN GEN)__1-Legal.png\"\u003e\u003cimg src=\"/uploads/2021_Sales_Budget_with_MARCH_Results_4219bb7169.png\" alt=\"2021 Sales Budget with MARCH Results.png\"\u003e\u003c/p\u003e","createdAt":"2024-09-09T18:28:23.544Z","updatedAt":"2024-09-20T16:12:10.277Z","publishedAt":"2024-09-17T09:10:48.901Z","image":{"data":{"id":1109,"attributes":{"name":"NATCO.png","alternativeText":null,"caption":null,"width":1000,"height":400,"formats":{"small":{"ext":".png","url":"/uploads/small_NATCO_9dfb0c056e.png","hash":"small_NATCO_9dfb0c056e","mime":"image/png","name":"small_NATCO.png","path":null,"size":28.94,"width":500,"height":200},"medium":{"ext":".png","url":"/uploads/medium_NATCO_9dfb0c056e.png","hash":"medium_NATCO_9dfb0c056e","mime":"image/png","name":"medium_NATCO.png","path":null,"size":59.27,"width":750,"height":300},"thumbnail":{"ext":".png","url":"/uploads/thumbnail_NATCO_9dfb0c056e.png","hash":"thumbnail_NATCO_9dfb0c056e","mime":"image/png","name":"thumbnail_NATCO.png","path":null,"size":8.29,"width":245,"height":98}},"hash":"NATCO_9dfb0c056e","ext":".png","mime":"image/png","size":24.57,"url":"/uploads/NATCO_9dfb0c056e.png","previewUrl":null,"provider":"local","provider_metadata":null,"createdAt":"2024-09-09T18:27:35.116Z","updatedAt":"2024-09-09T18:27:35.116Z"}}}}}],"meta":{"pagination":{"page":1,"pageSize":3,"pageCount":53,"total":159}}}},"__N_SSP":true},"page":"/posts/[slug]","query":{"slug":"SIMSONMAXWELL"},"buildId":"FD7MmWQlZ1c-pCvBZWyAc","isFallback":false,"gssp":true,"scriptLoader":[]}</script></body></html>